Practical 1: Medical Databases_old
…
Assuming babies can be counted as patients (age=0), there is only one age value that doesnt make sense, with a value of -1

data <- raw.data %>% filter(Age>=0)

## # A tibble: 1 x 3
##   Hypertension Diabetes AlcoholUseDisorder
##          <dbl>    <dbl>              <dbl>
## 1            0        0                  0

## # A tibble: 81 x 2
##    Neighbourhood         n
##    <chr>             <int>
##  1 JARDIM CAMBURI     7717
##  2 MARIA ORTIZ        5805
##  3 RESISTNCIA        4431
##  4 JARDIM DA PENHA    3877
##  5 ITARAR            3514
##  6 CENTRO             3334
##  7 TABUAZEIRO         3132
##  8 SANTA MARTHA       3131
##  9 JESUS DE NAZARETH  2853
## 10 BONFIM             2773
## # ... with 71 more rows

## # A tibble: 62,299 x 2
##    PatientID     n
##        <dbl> <int>
##  1   8.22e14    88
##  2   9.96e10    84
##  3   2.69e13    70
##  4   3.35e13    65
##  5   2.58e11    62
##  6   6.26e12    62
##  7   7.58e13    62
##  8   8.71e14    62
##  9   6.68e13    57
## 10   8.72e11    55
## # ... with 62,289 more rows
…
