Practical_2_Electronic_Medical_Records.knit
…
all.counts <- dplyr::left_join(lemma.counts, total.counts)

## Joining, by = "medical_specialty"

Now we can calculate the term frequency / invariant document frequency (tf-idf):

all.counts.tfidf <- tidytext::bind_tf_idf(all.counts, lemma, medical_specialty, n) 

We can then look at the top 10 lemma by tf-idf within each specialty:

all.counts.tfidf %>% dplyr::group_by(medical_specialty) %>% dplyr::slice_max(order_by=tf_idf, n=10)

## # A tibble: 31 x 7
## # Groups:   medical_specialty [3]
##    medical_specialty lemma          n total       tf   idf   tf_idf
##    <chr>             <chr>      <int> <int>    <dbl> <dbl>    <dbl>
##  1 Neurology         speech        89 62573 0.00142  0.405 0.000577
##  2 Neurology         93            87 62573 0.00139  0.405 0.000564
##  3 Neurology         impression    86 62573 0.00137  0.405 0.000557
##  4 Neurology         sleep         82 62573 0.00131  0.405 0.000531
##  5 Neurology         b.i.d         30 62573 0.000479 1.10  0.000527
##  6 Neurology         cn            78 62573 0.00125  0.405 0.000505
##  7 Neurology         drug          77 62573 0.00123  0.405 0.000499
##  8 Neurology         hx            70 62573 0.00112  0.405 0.000454
##  9 Neurology         96            69 62573 0.00110  0.405 0.000447
## 10 Neurology         fhx           63 62573 0.00101  0.405 0.000408
## # ... with 21 more rows
…
